<?xml version="1.0" encoding="UTF-8"?>
<svg width="48px" height="33px" viewBox="0 0 48 33" version="1.1" xmlns="http://www.w3.org/2000/svg" xmlns:xlink="http://www.w3.org/1999/xlink">
    <!-- Generator: Sketch 51.3 (57544) - http://www.bohemiancoding.com/sketch -->
    <title>adk-icon-limes-liplentes</title>
    <desc>Created with Sketch.</desc>
    <defs></defs>
    <g id="tālāk" stroke="none" stroke-width="1" fill="none" fill-rule="evenodd">
        <g id="ADK-dizains-1" transform="translate(-850.000000, -626.000000)" fill="#ACACAC" fill-rule="nonzero">
            <g id="lielās-kategorijas" transform="translate(0.000000, 592.000000)">
                <g id="1" transform="translate(719.000000, 1.000000)">
                    <g id="Group" transform="translate(122.000000, 25.000000)">
                        <g id="adk-icon-limes-liplentes" transform="translate(9.000000, 8.000000)">
                            <path d="M48,9.42857143 L48,4.71428571 L46.4516129,4.71428571 L46.4516129,7.85714286 L44.9032258,7.85714286 L44.9032258,2.8325 C44.9032258,1.2705 43.6513548,0 42.1122581,0 C41.1770323,0 40.3091613,0.471428571 39.7896774,1.26107143 L39.0696774,2.35714286 L35.6129032,2.35714286 L34.8387097,2.35714286 L8.51612903,2.35714286 L8.51612903,5.56835714 L0,6.35407143 L0,10.9316429 L8.51612903,11.7173571 L8.51612903,14.9285714 L34.0645161,14.9285714 L34.0645161,15.5532143 L31.7419355,21.0532143 L31.7419355,30.6428571 C31.7419355,31.9424286 32.784,33 34.0645161,33 C35.3450323,33 36.3870968,31.9424286 36.3870968,30.6428571 L36.3870968,23.0237857 L39.8051613,17.8207857 L43.8743226,31.4835714 C44.1460645,32.3902857 44.9566452,33 45.8910968,33 C47.0539355,33 48,32.0398571 48,30.8597143 L48,29.9915 C48,29.8500714 47.9860645,29.7094286 47.9589677,29.5719286 L44.9032258,14.0650714 L44.9032258,9.42857143 L48,9.42857143 Z M8.51612903,10.1404286 L1.5483871,9.49692857 L1.5483871,7.78878571 L8.51612903,7.14607143 L8.51612903,10.1404286 Z M35.6129032,3.92857143 L38.7096774,3.92857143 L38.7096774,13.3571429 L35.6129032,13.3571429 L35.6129032,3.92857143 Z M10.0645161,13.3571429 L10.0645161,11.8603571 L10.0645161,5.42614286 L10.0645161,3.92857143 L34.0645161,3.92857143 L34.0645161,13.3571429 L10.0645161,13.3571429 Z M34.8387097,22.5476429 L34.8387097,30.6428571 C34.8387097,31.0765714 34.491871,31.4285714 34.0645161,31.4285714 C33.6371613,31.4285714 33.2903226,31.0765714 33.2903226,30.6428571 L33.2903226,21.3753571 L35.6129032,15.8753571 L35.6129032,14.9285714 L38.9434839,14.9285714 L39.2245161,15.8714286 L34.8387097,22.5476429 Z M46.4407742,29.8815 C46.4485161,29.9176429 46.4516129,29.9545714 46.4516129,29.9915 L46.4516129,30.8597143 C46.4516129,31.174 46.2007742,31.4285714 45.8910968,31.4285714 C45.6472258,31.4285714 45.4265806,31.2627857 45.356129,31.0255 L40.8975484,16.1574286 L40.9021935,16.1495714 L40.8929032,16.1432857 L40.2580645,14.0265714 L40.2580645,3.38092857 L41.0779355,2.13321429 C41.3086452,1.782 41.6949677,1.57142857 42.1122581,1.57142857 C42.7974194,1.57142857 43.3548387,2.13714286 43.3548387,2.8325 L43.3548387,14.1428571 L46.4407742,29.8815 Z" id="Shape"></path>
                            <rect id="Rectangle-path" x="36.3870968" y="5.5" width="1.5483871" height="6.28571429"></rect>
                        </g>
                    </g>
                </g>
            </g>
        </g>
    </g>
</svg>