<?xml version="1.0" encoding="UTF-8"?>
<svg width="48px" height="49px" viewBox="0 0 48 49" version="1.1" xmlns="http://www.w3.org/2000/svg" xmlns:xlink="http://www.w3.org/1999/xlink">
    <!-- Generator: Sketch 51.3 (57544) - http://www.bohemiancoding.com/sketch -->
    <title>adk-icon-instrumenti-un-iekartas</title>
    <desc>Created with Sketch.</desc>
    <defs></defs>
    <g id="tālāk" stroke="none" stroke-width="1" fill="none" fill-rule="evenodd">
        <g id="ADK-dizains-1" transform="translate(-1151.000000, -618.000000)" fill="#ACACAC" fill-rule="nonzero">
            <g id="lielās-kategorijas" transform="translate(0.000000, 592.000000)">
                <g id="1" transform="translate(1029.000000, 1.000000)">
                    <g id="Group" transform="translate(122.000000, 25.000000)">
                        <g id="Group-4">
                            <g id="adk-icon-instrumenti-un-iekartas">
                                <path d="M45.6393443,31.6129032 C44.3378361,31.6129032 43.2786885,32.6766774 43.2786885,33.983871 L43.2786885,46.6290323 C43.2786885,47.0645 42.925377,47.4193548 42.4918033,47.4193548 L34.6229508,47.4193548 C34.189377,47.4193548 33.8360656,47.0645 33.8360656,46.6290323 L33.8360656,45.8387097 L36.0243934,45.8387097 L36.9411148,42.1565968 C38.8217705,41.2753871 40.1311475,39.3635968 40.1311475,37.1451613 L40.1311475,27.9884839 L41.704918,26.4078387 L41.704918,21.0115161 L41.4531148,20.7586129 C44.0104918,19.357371 45.6574426,17.5483226 47.1304918,14.5782903 L47.512918,13.8069355 L43.1055738,12.0595323 C43.2086557,11.4707419 43.2786885,10.875629 43.2786885,10.2741935 C43.2786885,4.60916129 38.6895738,0 33.0491803,0 C27.4087869,0 22.8196721,4.60916129 22.8196721,10.2741935 C22.8196721,10.5389516 22.8472131,10.8013387 22.8668852,11.0645161 L17.1659016,11.0645161 C16.8401311,10.1469516 15.9745574,9.48387097 14.9500328,9.48387097 C13.6485246,9.48387097 12.589377,10.5476452 12.589377,11.8548387 L2.36065574,11.8548387 C1.05914754,11.8548387 0,12.9186129 0,14.2258065 L0,15.8064516 C0,17.1136452 1.05914754,18.1774194 2.36065574,18.1774194 L12.5901639,18.1774194 C12.5901639,19.4846129 13.6493115,20.5483871 14.9508197,20.5483871 C15.9753443,20.5483871 16.840918,19.8853065 17.1666885,18.9677419 L22.1248525,18.9677419 C22.8645246,19.6458387 23.6891803,20.234629 24.6452459,20.7586129 L24.3934426,21.0115161 L24.3934426,26.4078387 L25.9672131,27.9884839 L25.9672131,37.1451613 C25.9672131,39.3635968 27.2765902,41.2753871 29.1572459,42.1565968 L30.0739672,45.8387097 L32.2622951,45.8387097 L32.2622951,46.6290323 C32.2622951,47.9362258 33.3214426,49 34.6229508,49 L42.4918033,49 C43.7933115,49 44.852459,47.9362258 44.852459,46.6290323 L44.852459,33.983871 C44.852459,33.5484032 45.2057705,33.1935484 45.6393443,33.1935484 L48,33.1935484 L48,31.6129032 L45.6393443,31.6129032 Z M12.5901639,16.5967742 L2.36065574,16.5967742 C1.92708197,16.5967742 1.57377049,16.2419194 1.57377049,15.8064516 L1.57377049,14.2258065 C1.57377049,13.7903387 1.92708197,13.4354839 2.36065574,13.4354839 L12.5901639,13.4354839 L12.5901639,16.5967742 Z M15.7377049,18.1774194 C15.7377049,18.6128871 15.3843934,18.9677419 14.9508197,18.9677419 C14.5172459,18.9677419 14.1639344,18.6128871 14.1639344,18.1774194 L14.1639344,11.8548387 C14.1639344,11.419371 14.5172459,11.0645161 14.9508197,11.0645161 C15.3843934,11.0645161 15.7377049,11.419371 15.7377049,11.8548387 L15.7377049,18.1774194 Z M45.3230164,14.6375645 C44.0317377,16.9824516 42.5382295,18.4350645 40.2845902,19.5849839 L40.1311475,19.430871 L40.1311475,12.5787742 L45.3230164,14.6375645 Z M33.0491803,1.58064516 C37.8216393,1.58064516 41.704918,5.4808871 41.704918,10.2741935 C41.704918,10.6756774 41.6702951,11.074 41.6167869,11.468371 L40.1311475,10.8795806 L40.1311475,10.8455968 L37.4289836,6.32258065 L28.669377,6.32258065 L25.9672131,10.8455968 L25.9672131,10.8795806 L24.4815738,11.468371 C24.4280656,11.074 24.3934426,10.6756774 24.3934426,10.2741935 C24.3934426,5.4808871 28.2767213,1.58064516 33.0491803,1.58064516 Z M17.3114754,17.3870968 L17.3114754,12.6451613 L21.5150164,12.6451613 L18.5854426,13.8069355 L18.9678689,14.5782903 C19.5045246,15.6610323 20.0695082,16.5762258 20.6872131,17.3870968 L17.3114754,17.3870968 Z M25.8137705,19.5849839 C23.5601311,18.4350645 22.066623,16.9824516 20.7753443,14.6375645 L25.9672131,12.5787742 L25.9672131,19.430871 L25.8137705,19.5849839 Z M27.5409836,37.1451613 L27.5409836,27.3340968 L25.9672131,25.7534516 L25.9672131,21.6659032 L27.5409836,20.0852581 L27.5409836,17.3870968 L29.9016393,17.3870968 L29.9016393,15.8064516 L27.5409836,15.8064516 L27.5409836,11.2834355 L29.5601311,7.90322581 L36.5374426,7.90322581 L38.557377,11.2834355 L38.557377,15.8064516 L36.1967213,15.8064516 L36.1967213,17.3870968 L38.557377,17.3870968 L38.557377,20.0852581 L40.1311475,21.6659032 L40.1311475,25.7534516 L38.557377,27.3340968 L38.557377,37.1451613 C38.557377,39.3240806 36.7923934,41.0967742 34.6229508,41.0967742 L31.4754098,41.0967742 C29.3059672,41.0967742 27.5409836,39.3240806 27.5409836,37.1451613 Z M31.303082,44.2580645 L30.9017705,42.6473871 C31.090623,42.6671452 31.2818361,42.6774194 31.4754098,42.6774194 L34.6229508,42.6774194 C34.8165246,42.6774194 35.0077377,42.6671452 35.1965902,42.6473871 L34.7952787,44.2580645 L31.303082,44.2580645 Z" id="Shape"></path>
                                <path d="M33.0491803,25.2903226 C30.8797377,25.2903226 29.1147541,27.0630161 29.1147541,29.2419355 L29.1147541,35.5645161 C29.1147541,37.7434355 30.8797377,39.516129 33.0491803,39.516129 C35.218623,39.516129 36.9836066,37.7434355 36.9836066,35.5645161 L36.9836066,29.2419355 C36.9836066,27.0630161 35.218623,25.2903226 33.0491803,25.2903226 Z M35.4098361,31.6129032 L33.8360656,31.6129032 L33.8360656,33.1935484 L35.4098361,33.1935484 L35.4098361,35.5645161 C35.4098361,36.8717097 34.3506885,37.9354839 33.0491803,37.9354839 C31.7476721,37.9354839 30.6885246,36.8717097 30.6885246,35.5645161 L30.6885246,33.1935484 L32.2622951,33.1935484 L32.2622951,31.6129032 L30.6885246,31.6129032 L30.6885246,29.2419355 C30.6885246,27.9347419 31.7476721,26.8709677 33.0491803,26.8709677 C34.3506885,26.8709677 35.4098361,27.9347419 35.4098361,29.2419355 L35.4098361,31.6129032 Z" id="Shape"></path>
                                <path d="M29.1147541,18.9677419 L29.1147541,23.7096774 L36.9836066,23.7096774 L36.9836066,18.9677419 L29.1147541,18.9677419 Z M32.2622951,22.1290323 L30.6885246,22.1290323 L30.6885246,20.5483871 L32.2622951,20.5483871 L32.2622951,22.1290323 Z M35.4098361,22.1290323 L33.8360656,22.1290323 L33.8360656,20.5483871 L35.4098361,20.5483871 L35.4098361,22.1290323 Z" id="Shape"></path>
                                <rect id="Rectangle-path" x="29.1147541" y="11.0645161" width="1.57377049" height="1.58064516"></rect>
                                <rect id="Rectangle-path" x="32.2622951" y="11.0645161" width="1.57377049" height="1.58064516"></rect>
                                <rect id="Rectangle-path" x="35.4098361" y="11.0645161" width="1.57377049" height="1.58064516"></rect>
                            </g>
                        </g>
                    </g>
                </g>
            </g>
        </g>
    </g>
</svg>