<?xml version="1.0" encoding="UTF-8"?>
<svg width="9px" height="6px" viewBox="0 0 9 6" version="1.1" xmlns="http://www.w3.org/2000/svg" xmlns:xlink="http://www.w3.org/1999/xlink">
    <!-- Generator: Sketch 51.3 (57544) - http://www.bohemiancoding.com/sketch -->
    <title>fa-check</title>
    <desc>Created with Sketch.</desc>
    <defs></defs>
    <g id="tālāk" stroke="none" stroke-width="1" fill="none" fill-rule="evenodd">
        <g id="ADK-dizains-produktu-saraksta-skats-1" transform="translate(-128.000000, -497.000000)">
            <g id="Sidebar-filtrs" transform="translate(100.000000, 393.000000)">
                <g id="1" transform="translate(0.000000, 40.000000)"></g>
            </g>
        </g>
    </g>
</svg>