<?xml version="1.0" encoding="UTF-8"?>
<svg width="30px" height="30px" viewBox="0 0 30 30" version="1.1" xmlns="http://www.w3.org/2000/svg" xmlns:xlink="http://www.w3.org/1999/xlink">
    <!-- Generator: Sketch 51.3 (57544) - http://www.bohemiancoding.com/sketch -->
    <title>facebook-logo-button</title>
    <desc>Created with Sketch.</desc>
    <defs></defs>
    <g id="tālāk" stroke="none" stroke-width="1" fill="none" fill-rule="evenodd">
        <g id="ADK-dizains-1" transform="translate(-1052.000000, -2912.000000)" fill="#ADA9A6" fill-rule="nonzero">
            <g id="ADK-footer" transform="translate(0.000000, 2572.000000)">
                <g id="footer-top">
                    <g id="5" transform="translate(1052.000000, 302.000000)">
                        <g id="social" transform="translate(0.000000, 38.000000)">
                            <g id="facebook-logo-button">
                                <path d="M14.6699091,0 C6.58095455,0 0,6.58095455 0,14.6699091 C0,22.7582727 6.58095455,29.3398182 14.6699091,29.3398182 C22.7582727,29.3398182 29.3398182,22.7582727 29.3398182,14.6699091 C29.3398182,6.58095455 22.7594545,0 14.6699091,0 Z M18.3181818,15.1863636 L15.9315,15.1863636 C15.9315,18.9995 15.9315,23.6930909 15.9315,23.6930909 L12.3949091,23.6930909 C12.3949091,23.6930909 12.3949091,19.045 12.3949091,15.1863636 L10.7137727,15.1863636 L10.7137727,12.1798182 L12.3949091,12.1798182 L12.3949091,10.2351364 C12.3949091,8.84236364 13.0567273,6.66604545 15.964,6.66604545 L18.5846818,6.67609091 L18.5846818,9.59459091 C18.5846818,9.59459091 16.9921818,9.59459091 16.6825455,9.59459091 C16.3729091,9.59459091 15.9326818,9.74940909 15.9326818,10.4135909 L15.9326818,12.1804091 L18.6272273,12.1804091 L18.3181818,15.1863636 Z" id="Shape"></path>
                            </g>
                        </g>
                    </g>
                </g>
            </g>
        </g>
    </g>
</svg>