<?xml version="1.0" encoding="UTF-8"?>
<svg width="58" height="80" viewBox="0 0 58 80" fill="none" xmlns="http://www.w3.org/2000/svg">
<path d="M29.2608 17.532C23.6228 17.532 19.0338 22.121 19.0338 27.759C19.0338 33.397 23.6228 37.986 29.2608 37.986C34.8988 37.986 39.4878 33.397 39.4878 27.759C39.4878 22.121 34.8988 17.532 29.2608 17.532ZM29.2608 35.064C25.2328 35.064 21.9558 31.787 21.9558 27.759C21.9558 23.731 25.2328 20.454 29.2608 20.454C33.2887 20.454 36.5658 23.731 36.5658 27.759C36.5658 31.787 33.2887 35.064 29.2608 35.064Z" fill="#F7DE7C"/>
<path d="M48.8133 8.20644C43.5216 2.9147 36.4854 0 29.0021 0C21.5174 0 14.4827 2.9147 9.19098 8.20644C-0.602105 17.9981 -1.81912 36.4213 6.55534 47.5833L29.0021 80L51.4154 47.6286C59.8234 36.4213 58.6064 17.9981 48.8133 8.20644ZM49.0456 45.9207L29.0021 74.866L8.92654 45.8754C1.3308 35.7478 2.41924 19.1099 11.2583 10.2723C15.9978 5.53281 22.2991 2.922 29.0021 2.922C35.7052 2.922 42.0065 5.53281 46.7475 10.2723C55.5865 19.1099 56.675 35.7478 49.0456 45.9207Z" fill="#F7DE7C"/>
</svg>
